{
  "name": "ttb-foundryvtt",
  "title": "Through the Breach",
  "description": "A FoundryVTT system implementation of Through the Breach",
  "version": 0.35,
  "minimumCoreVersion": "0.5.2",
  "compatibleCoreVersion": "0.5.5",
  "templateVersion": 2,
  "author": "David Martin",
  "esmodules": [
    "ttb.js"
  ],
  "styles": [
    "styles/ttb.css"
  ],
  "packs": [],
  "languages": [],
  "gridDistance": 5,
  "gridUnits": "ft",
  "primaryTokenAttribute": "health",
  "secondaryTokenAttribute": "power",
  "url": "https://gitlab.com/davidpmartin/ttb-foundryvtt/",
  "manifest": "https://gitlab.com/davidpmartin/ttb-foundryvtt/-/blob/master/src/system.json",
  "license": "LICENSE.txt"
}